{
  "relationships": [],
  "fields": [
    {
      "fieldId": 1,
      "fieldName": "created",
      "fieldType": "ZonedDateTime"
    },
    {
      "fieldId": 2,
      "fieldName": "deleted",
      "fieldType": "ZonedDateTime"
    },
    {
      "fieldId": 3,
      "fieldName": "lastUpdate",
      "fieldType": "ZonedDateTime"
    },
    {
      "fieldId": 4,
      "fieldName": "version",
      "fieldType": "Integer"
    },
    {
      "fieldId": 5,
      "fieldName": "name",
      "fieldType": "String"
    },
    {
      "fieldId": 6,
      "fieldName": "location",
      "javadoc": "<Enter note text here>",
      "fieldType": "String"
    },
    {
      "fieldId": 7,
      "fieldName": "radius",
      "fieldType": "Integer"
    }
  ],
  "changelogDate": "20160701061914",
  "dto": "no",
  "pagination": "no"
}